<?xml version="1.0" encoding="UTF-8" standalone="no"?>
<svg
   xmlns:dc="http://purl.org/dc/elements/1.1/"
   xmlns:cc="http://creativecommons.org/ns#"
   xmlns:rdf="http://www.w3.org/1999/02/22-rdf-syntax-ns#"
   xmlns:svg="http://www.w3.org/2000/svg"
   xmlns="http://www.w3.org/2000/svg"
   xmlns:sodipodi="http://sodipodi.sourceforge.net/DTD/sodipodi-0.dtd"
   xmlns:inkscape="http://www.inkscape.org/namespaces/inkscape"
   height="34.95px"
   width="290.45px"
   id="svg3336"
   version="1.1"
   inkscape:version="0.91 r13725"
   sodipodi:docname="Slash.svg">
  <metadata
     id="metadata3348">
    <rdf:RDF>
      <cc:Work
         rdf:about="">
        <dc:format>image/svg+xml</dc:format>
        <dc:type
           rdf:resource="http://purl.org/dc/dcmitype/StillImage" />
        <dc:title></dc:title>
      </cc:Work>
    </rdf:RDF>
  </metadata>
  <defs
     id="defs3346" />
  <sodipodi:namedview
     pagecolor="#ffffff"
     bordercolor="#666666"
     borderopacity="1"
     objecttolerance="10"
     gridtolerance="10"
     guidetolerance="10"
     inkscape:pageopacity="0"
     inkscape:pageshadow="2"
     inkscape:window-width="1440"
     inkscape:window-height="851"
     id="namedview3344"
     showgrid="false"
     inkscape:zoom="1.4142136"
     inkscape:cx="25.731143"
     inkscape:cy="-156.16055"
     inkscape:window-x="0"
     inkscape:window-y="0"
     inkscape:window-maximized="1"
     inkscape:current-layer="svg3336"
     inkscape:snap-to-guides="true"
     inkscape:snap-grids="false"
     showguides="true"
     inkscape:guide-bbox="true"
     inkscape:object-nodes="true">
    <sodipodi:guide
       position="307.00852,-159.79424"
       orientation="0,1"
       id="guide4337" />
  </sodipodi:namedview>
  <g
     inkscape:groupmode="layer"
     id="layer5"
     inkscape:label="UpHorizontalSlash"
     style="display:inline">
    <g
       inkscape:groupmode="layer"
       id="layer2"
       inkscape:label="Layer 0"
       style="display:inline">
      <g
         style="display:inline"
         id="g3425"
         transform="translate(128.5,6.4982759)">
        <path
           id="path3427"
           d="m -20.5,25.25 q -4.4,0.9 -10.7,3.2 -17.9,-0.05 -37.65,-0.7 L -128.5,24.5 q 8.75,0.25 29.05,-0.25 l 49.35,-1.9 29.6,2.9"
           inkscape:connector-curvature="0"
           style="fill:#0bafdf;fill-rule:evenodd;stroke:none" />
        <path
           id="path3429"
           d="m -32.95,23.55 q 1.75,1.15 5,1.7 l 14.6,1.2 -20.75,0.05 q -24,-0.15 -41.65,-1 l 35.75,-1.55 7.05,-0.4"
           inkscape:connector-curvature="0"
           style="fill:#ffffff;fill-rule:evenodd;stroke:none" />
      </g>
    </g>
    <g
       inkscape:groupmode="layer"
       id="layer1"
       inkscape:label="Layer 1"
       style="display:inline">
      <g
         transform="translate(128.5,6.5)"
         id="g3338">
        <path
           d="m 161.95,-5.5 -9,9 Q 144.35,6.9 126.6,11.25 91.1,20 45.5,25 -0.1,30 -68.85,27.75 L -128.5,24.5 q 8.75,0.25 29.05,-0.25 L -1,19.5 Q 56.8,15.75 108.9,4.25 134.95,-1.5 149.45,-6.5 l 12.5,1"
           id="path3340"
           inkscape:connector-curvature="0"
           style="fill:#0bafdf;fill-rule:evenodd;stroke:none" />
        <path
           d="m 154.05,-2.95 -6.2,6.25 q -12.95,3.55 -32.2,7.8 -38.5,8.55 -70.15,12.15 -31.65,3.55 -79.6,3.25 -24,-0.15 -41.65,-1 L -40,23.95 Q 3.8,21.5 43.75,17.25 83.9,12.9 118.65,4.2 q 17.4,-4.35 26.75,-7.85 l 8.65,0.7"
           id="path3342"
           inkscape:connector-curvature="0"
           style="fill:#ffffff;fill-rule:evenodd;stroke:none" />
      </g>
    </g>
    <g
       inkscape:groupmode="layer"
       id="layer3"
       inkscape:label="Layer 2"
       style="display:inline">
      <g
         style="display:inline"
         id="g3496"
         transform="translate(128.5,6.5)">
        <path
           id="path3498"
           d="m 149.45,-6.5 12.5,1 -9,9 Q 147.5,5.65 138.3,8.25 L 135.2,8.5 88.05,8.5 108.9,4.25 Q 134.95,-1.5 149.45,-6.5"
           inkscape:connector-curvature="0"
           style="fill:#0bafdf;fill-rule:evenodd;stroke:none" />
        <path
           id="path3500"
           d="m 145.4,-3.65 8.65,0.7 -5.85,5.95 -20.15,3.75 -2.2,0.25 -19,0 11.8,-2.8 q 17.4,-4.35 26.75,-7.85"
           inkscape:connector-curvature="0"
           style="fill:#ffffff;fill-rule:evenodd;stroke:none" />
      </g>
    </g>
    <g
       inkscape:groupmode="layer"
       id="layer4"
       inkscape:label="Layer 3"
       style="display:inline">
      <g
         style="display:inline"
         id="g3565"
         transform="translate(110.21705,-0.05954443)">
        <path
           id="path3567"
           d="M 36.65,17.05 -133.35,32 -90.6,27.6 33.35,15.65 142.4,6.05 l 51.75,-4.3 -62.05,6.2 -95.45,9.1"
           inkscape:connector-curvature="0"
           style="fill:#ccff00;fill-opacity:0.44705882;fill-rule:evenodd;stroke:none" />
      </g>
    </g>
  </g>
  <g
     inkscape:groupmode="layer"
     id="layer11"
     inkscape:label="HorizontalSlash"
     style="display:none">
    <g
       inkscape:groupmode="layer"
       id="layer12"
       inkscape:label="base">
      <g
         style="display:inline"
         id="g4175"
         transform="translate(171.75852,190.49424)">
        <path
           id="path4177"
           d="m -66.3,9.55 q 14.05,3.55 29.1,6.25 -4.5,0.45 -11.1,1.95 L -85.6,12.7 q -34,-5.15 -58.75,-10.25 l 28.85,3.2 49.2,3.9"
           inkscape:connector-curvature="0"
           style="fill:#0bafdf;fill-rule:evenodd;stroke:none" />
        <path
           id="path4179"
           d="m -49.4,12.75 q 1.6,1.35 4.75,2.2 3.45,1.15 14.35,3 l -20.65,-2.4 Q -74.7,12.55 -92.1,9.6 l 35.6,2.75 7.1,0.4"
           inkscape:connector-curvature="0"
           style="fill:#ffffff;fill-rule:evenodd;stroke:none" />
      </g>
    </g>
    <g
       inkscape:groupmode="layer"
       id="layer13"
       inkscape:label="_mid"
       style="display:inline">
      <g
         id="g4247"
         transform="translate(171.75852,190.49424)">
        <path
           id="path4249"
           d="M 147.55,6.75 137.5,14.6 Q 128.6,17 110.45,19.2 74.2,23.7 28.25,23.4 -17.6,23 -85.6,12.7 -119.6,7.55 -144.35,2.45 l 28.85,3.2 q 40.45,3.75 98.25,6.75 57.9,3.1 110.95,-2.2 26.55,-2.65 41.55,-5.95 l 12.3,2.5"
           inkscape:connector-curvature="0"
           style="fill:#0bafdf;fill-rule:evenodd;stroke:none" />
        <path
           id="path4251"
           d="m 139.4,8.4 -6.9,5.4 q -13.25,2.05 -32.9,4 -39.25,3.95 -71.1,3.85 -31.85,-0.2 -79.45,-6.1 -23.75,-3 -41.15,-5.95 l 35.6,2.75 84.05,3.1 q 40.35,0.4 75.9,-4.1 Q 121.2,9 130.9,6.7 l 8.5,1.7"
           inkscape:connector-curvature="0"
           style="fill:#ffffff;fill-rule:evenodd;stroke:none" />
      </g>
    </g>
    <g
       inkscape:groupmode="layer"
       id="layer14"
       inkscape:label="_top">
      <g
         id="g4318"
         transform="translate(171.75852,190.49424)">
        <path
           id="path4320"
           d="m 135.25,4.25 12.3,2.5 -10.05,7.85 q -5.6,1.55 -15.05,3.05 l -3.1,-0.1 L 72.6,12 93.7,10.2 q 26.55,-2.65 41.55,-5.95"
           inkscape:connector-curvature="0"
           style="fill:#0bafdf;fill-rule:evenodd;stroke:none" />
        <path
           id="path4322"
           d="m 139.4,8.4 -6.55,5.2 -20.4,1.3 -2.2,0.05 -18.9,-2.25 12.1,-1.35 Q 121.2,9 130.9,6.7 l 8.5,1.7"
           inkscape:connector-curvature="0"
           style="fill:#ffffff;fill-rule:evenodd;stroke:none" />
      </g>
    </g>
  </g>
  <g
     inkscape:groupmode="layer"
     id="layer6"
     inkscape:label="DiagonalSlash"
     style="display:none">
    <g
       inkscape:groupmode="layer"
       id="layer7"
       inkscape:label="lowest"
       style="display:inline">
      <g
         id="g3667"
         transform="translate(-129.53219,72.941134)">
        <path
           id="path3669"
           d="m -66.55,30.1 q 14.05,-3.45 28.65,-8.05 -3.8,2.45 -8.85,6.9 -16.65,6.45 -35.35,13 -32.45,11.4 -56.75,18.5 8.2,-2.9 27,-10.7 20.4,-8.55 45.3,-19.65"
           inkscape:connector-curvature="0"
           style="fill:#0bafdf;fill-rule:evenodd;stroke:none" />
        <path
           id="path3671"
           d="m -50.1,25.05 5.25,-0.3 q 3.55,-0.65 14.05,-4.1 l -19.35,7.55 q -22.4,8.55 -39.15,14.1 12.8,-5.3 32.75,-14.35 l 6.45,-2.9"
           inkscape:connector-curvature="0"
           style="fill:#ffffff;fill-rule:evenodd;stroke:none" />
      </g>
    </g>
    <g
       inkscape:groupmode="layer"
       id="layer8"
       inkscape:label="mid">
      <g
         style="display:inline"
         id="g3736"
         transform="translate(-129.53219,72.941134)">
        <path
           id="path3738"
           d="m 121,-72.65 -5.15,11.7 q -6.75,6.25 -21.7,16.7 -29.95,21 -70.65,42.25 -40.7,21.15 -105.6,43.95 -32.45,11.4 -56.75,18.5 8.2,-2.9 27,-10.7 37.5,-15.65 90,-40.1 52.55,-24.4 96.95,-54 22.2,-14.75 33.9,-24.7 l 12,-3.6"
           inkscape:connector-curvature="0"
           style="fill:#0bafdf;fill-rule:evenodd;stroke:none" />
        <path
           id="path3740"
           d="m 114.6,-67.35 -3.55,8 q -10.75,8 -27.2,19 -32.8,21.85 -61,36.7 -28.2,14.75 -73,31.85 -22.4,8.55 -39.15,14.1 12.8,-5.3 32.75,-14.35 39.95,-18.2 75.65,-36.6 35.85,-18.6 65.1,-39.25 14.6,-10.35 22.1,-17 l 8.3,-2.45"
           inkscape:connector-curvature="0"
           style="fill:#ffffff;fill-rule:evenodd;stroke:none" />
      </g>
    </g>
    <g
       inkscape:groupmode="layer"
       id="layer9"
       inkscape:label="highest">
      <g
         id="g3807"
         transform="translate(-129.53219,72.941134)">
        <path
           id="path3809"
           d="M 57.25,-32.85 75.1,-44.35 Q 97.3,-59.1 109,-69.05 l 12,-3.6 -5.15,11.7 q -4.25,3.95 -11.9,9.7 l -2.75,1.35 -43.95,17.05"
           inkscape:connector-curvature="0"
           style="fill:#0bafdf;fill-rule:evenodd;stroke:none" />
        <path
           id="path3811"
           d="m 114.6,-67.35 -3.3,7.65 q -11.25,7.3 -17.45,10.75 l -1.95,1.05 -17.7,6.85 10,-6.85 q 14.6,-10.35 22.1,-17 l 8.3,-2.45"
           inkscape:connector-curvature="0"
           style="fill:#ffffff;fill-rule:evenodd;stroke:none" />
      </g>
    </g>
    <g
       inkscape:groupmode="layer"
       id="layer10"
       inkscape:label="streak"
       style="display:inline">
      <g
         style="display:inline"
         id="g3877"
         transform="translate(-148.43676,69.982359)">
        <path
           id="path3879"
           d="M 98.1,-49.3 Q 25.95,-12.85 12.4,-6.25 l -153.05,75.5 38.25,-19.6 Q -22.55,9.3 8.8,-6.35 40.1,-22.05 107,-54.8 l 46.7,-22.75 -55.6,28.25"
           inkscape:connector-curvature="0"
           style="fill:#ccff00;fill-opacity:0.44705882;fill-rule:evenodd;stroke:none" />
      </g>
    </g>
  </g>
</svg>
