<?xml version="1.0" encoding="UTF-8" standalone="no"?>
<svg
   xmlns:dc="http://purl.org/dc/elements/1.1/"
   xmlns:cc="http://creativecommons.org/ns#"
   xmlns:rdf="http://www.w3.org/1999/02/22-rdf-syntax-ns#"
   xmlns:svg="http://www.w3.org/2000/svg"
   xmlns="http://www.w3.org/2000/svg"
   version="1.1"
   id="svg3336"
   width="400"
   height="48">
  <metadata
     id="metadata3348">
    <rdf:RDF>
      <cc:Work
         rdf:about="">
        <dc:format>image/svg+xml</dc:format>
        <dc:type
           rdf:resource="http://purl.org/dc/dcmitype/StillImage" />
        <dc:title></dc:title>
      </cc:Work>
    </rdf:RDF>
  </metadata>
  <defs
     id="defs3346" />
  <g
     transform="translate(177.95,9)"
     style="display:inline"
     id="layer18">
    <g
       style="display:none"
       id="layer32">
      <path
         style="fill:#ccff00;fill-opacity:0.44705882;fill-rule:evenodd;stroke:none"
         d="M 178.18521,3.4053301 C 32.211642,18.094136 2.9347169,20.946788 -114.51255,30.778806 -16.232111,18.814992 14.508164,16.154804 178.18521,3.4053301 Z"
         id="path7576-2-1-9-1-8-6" />
      <path
         style="fill:none;stroke:#000000;stroke-width:1;stroke-linecap:round;stroke-linejoin:round;stroke-opacity:0"
         d="M -177.95,39 23.1,26.35 l 9.1,-0.5 q 15.05,-0.8 95.9,-12.4 l 4.85,-0.7 L 205.2,2.1 206,2 Q 178.85,2.45 146.05,3.5 L 138.5,3.75 Q 64,6.25 29,10 l -13.1,1.5 q -36.7,4.4 -111.35,15.25 l -32.45,4.75 -50.05,7.5"
         id="path7578-9-8-4-6-5-9" />
    </g>
    <g
       style="display:none"
       id="layer30">
      <path
         style="fill:#ccff00;fill-opacity:0.44705882;fill-rule:evenodd;stroke:none"
         d="M 188.18521,2.4053301 C 44.211642,20.344136 -18.41237,21.611002 -136.96319,33.25368 -36.719334,21.10554 27.744399,14.461351 188.18521,2.4053301 Z"
         id="path7576-2-1-9-1-8" />
      <path
         style="fill:none;stroke:#000000;stroke-width:1;stroke-linecap:round;stroke-linejoin:round;stroke-opacity:0"
         d="M -177.95,39 23.1,26.35 l 9.1,-0.5 q 15.05,-0.8 95.9,-12.4 l 4.85,-0.7 L 205.2,2.1 206,2 Q 178.85,2.45 146.05,3.5 L 138.5,3.75 Q 64,6.25 29,10 l -13.1,1.5 q -36.7,4.4 -111.35,15.25 l -32.45,4.75 -50.05,7.5"
         id="path7578-9-8-4-6-5" />
    </g>
    <g
       style="display:none"
       id="layer29">
      <path
         style="fill:#ccff00;fill-opacity:0.44705882;fill-rule:evenodd;stroke:none"
         d="M 195.875,1.875 C 56.055681,21.228019 -23.554691,24.244885 -149.08819,35.00368 -44.219334,22.10554 52.31636,8.8928851 195.875,1.875 Z"
         id="path7576-2-1-9-1" />
      <path
         style="fill:none;stroke:#000000;stroke-width:1;stroke-linecap:round;stroke-linejoin:round;stroke-opacity:0"
         d="M -177.95,39 23.1,26.35 l 9.1,-0.5 q 15.05,-0.8 95.9,-12.4 l 4.85,-0.7 L 205.2,2.1 206,2 Q 178.85,2.45 146.05,3.5 L 138.5,3.75 Q 64,6.25 29,10 l -13.1,1.5 q -36.7,4.4 -111.35,15.25 l -32.45,4.75 -50.05,7.5"
         id="path7578-9-8-4-6" />
      <path
         style="fill:#0bafdf;fill-rule:evenodd;stroke:none"
         d="m 149.45,-6.5 12.5,1 -9,9 Q 147.5,5.65 138.3,8.25 L 135.2,8.5 88.05,8.5 108.9,4.25 Q 134.95,-1.5 149.45,-6.5"
         id="path7558-3" />
      <path
         style="fill:#ffffff;fill-rule:evenodd;stroke:none"
         d="m 145.4,-3.65 8.65,0.7 -5.85,5.95 -20.15,3.75 -2.2,0.25 -19,0 11.8,-2.8 q 17.4,-4.35 26.75,-7.85"
         id="path7560-3" />
    </g>
    <g
       style="display:none"
       id="layer27">
      <path
         style="fill:#ccff00;fill-opacity:0.44705882;fill-rule:evenodd;stroke:none"
         d="M 206,2 C 85.891282,22.015932 -30.628769,25.898914 -177.95,39 -49.039509,20.710171 79.5887,1.6816522 206,2 Z"
         id="path7576-2-1" />
      <path
         style="fill:none;stroke:#000000;stroke-width:1;stroke-linecap:round;stroke-linejoin:round;stroke-opacity:0"
         d="M -177.95,39 23.1,26.35 l 9.1,-0.5 q 15.05,-0.8 95.9,-12.4 l 4.85,-0.7 L 205.2,2.1 206,2 Q 178.85,2.45 146.05,3.5 L 138.5,3.75 Q 64,6.25 29,10 l -13.1,1.5 q -36.7,4.4 -111.35,15.25 l -32.45,4.75 -50.05,7.5"
         id="path7578-9-8" />
      <path
         style="fill:#0bafdf;fill-rule:evenodd;stroke:none"
         d="m 161.95,-5.5 -9,9 C 113.44858,17.071749 74.718894,25.323224 -18.224766,20.308063 39.509533,16.34832 101.391,8.6819055 149.45,-6.5 l 12.5,1"
         id="path7500-4-9-0" />
      <path
         style="fill:#ffffff;fill-rule:evenodd;stroke:none"
         d="m 154.05,-2.95 -6.2,6.25 C 96.226483,16.708036 63.116068,20.6967 19.21525,19.309136 58.724513,15.877156 100.03111,11.583216 145.4,-3.65 l 8.65,0.7"
         id="path7502-7-2-0" />
    </g>
    <g
       style="display:none"
       id="layer28">
      <path
         style="fill:#ccff00;fill-opacity:0.44705882;fill-rule:evenodd;stroke:none"
         d="M 206,2 C 70.776875,20.734301 -24.968905,26.808147 -162.7,37.125 -54.295606,21.310045 66.153671,7.3385065 206,2 Z"
         id="path7576-2-1-9" />
      <path
         style="fill:none;stroke:#000000;stroke-width:1;stroke-linecap:round;stroke-linejoin:round;stroke-opacity:0"
         d="M -177.95,39 23.1,26.35 l 9.1,-0.5 q 15.05,-0.8 95.9,-12.4 l 4.85,-0.7 L 205.2,2.1 206,2 Q 178.85,2.45 146.05,3.5 L 138.5,3.75 Q 64,6.25 29,10 l -13.1,1.5 q -36.7,4.4 -111.35,15.25 l -32.45,4.75 -50.05,7.5"
         id="path7578-9-8-4" />
      <path
         style="display:inline;fill:#0bafdf;fill-rule:evenodd;stroke:none"
         d="m 161.95,-5.5 -9,9 C 68.061514,29.539038 2.757213,27.049678 -82.950869,23.432704 -5.2791155,21.079265 81.370664,15.029714 149.45,-6.5 l 12.5,1"
         id="path7500-4-4-0" />
      <path
         style="display:inline;fill:#ffffff;fill-rule:evenodd;stroke:none"
         d="m 154.05,-2.95 -6.2,6.25 C 65.2747,24.83025 17.570733,24.453423 -34.688443,23.512567 31.962255,18.437983 74.314283,17.062763 145.4,-3.65 l 8.65,0.7"
         id="path7502-7-7-9" />
    </g>
    <g
       style="display:none"
       id="layer26">
      <path
         style="fill:#ccff00;fill-opacity:0.44705882;fill-rule:evenodd;stroke:none"
         d="m -177.95,39 50.05,-7.5 32.45,-4.75 Q -20.8,15.9 15.9,11.5 L 29,10 Q 64,6.25 138.5,3.75 L 146.05,3.5 Q 178.85,2.45 206,2 l -0.8,0.1 -72.25,10.65 -4.85,0.7 Q 47.25,25.05 32.2,25.85 L 23.1,26.35 -177.95,39"
         id="path7576-2" />
      <path
         style="fill:none;stroke:#000000;stroke-width:1;stroke-linecap:round;stroke-linejoin:round;stroke-opacity:0"
         d="M -177.95,39 23.1,26.35 l 9.1,-0.5 q 15.05,-0.8 95.9,-12.4 l 4.85,-0.7 L 205.2,2.1 206,2 Q 178.85,2.45 146.05,3.5 L 138.5,3.75 Q 64,6.25 29,10 l -13.1,1.5 q -36.7,4.4 -111.35,15.25 l -32.45,4.75 -50.05,7.5"
         id="path7578-9" />
      <path
         style="fill:#0bafdf;fill-rule:evenodd;stroke:none"
         d="m 161.95,-5.5 -9,9 C 46.911341,36.540587 -30.853895,29.002093 -128.5,24.5 -40.883189,22.886439 67.678959,19.359639 149.45,-6.5 l 12.5,1"
         id="path7500-4-4" />
      <path
         style="fill:#ffffff;fill-rule:evenodd;stroke:none"
         d="m 154.05,-2.95 -6.2,6.25 C 65.274696,24.830249 25.668195,28.221193 -77.164214,25.146447 7.4834408,21.736079 76.082048,18.83053 145.4,-3.65 l 8.65,0.7"
         id="path7502-7-7" />
    </g>
    <g
       style="display:none"
       id="layer25">
      <path
         style="fill:#0bafdf;fill-rule:evenodd;stroke:none"
         d="m 161.95,-5.5 -9,9 C 46.911341,36.540587 -30.853895,29.002093 -128.5,24.5 -40.883189,22.886439 67.678959,19.359639 149.45,-6.5 l 12.5,1"
         id="path7500-4" />
      <path
         style="fill:#ffffff;fill-rule:evenodd;stroke:none"
         d="m 154.05,-2.95 -6.2,6.25 C 65.274696,24.830249 25.668195,28.221193 -77.164214,25.146447 7.4834408,21.736079 76.082048,18.83053 145.4,-3.65 l 8.65,0.7"
         id="path7502-7" />
    </g>
    <g
       style="display:none"
       id="layer23">
      <path
         id="path7601-8"
         d="m -20.5,25.25 q -4.4,0.9 -10.7,3.2 -17.9,-0.05 -37.65,-0.7 L -128.5,24.5 q 8.75,0.25 29.05,-0.25 l 49.35,-1.9 29.6,2.9"
         style="fill:#0bafdf;fill-rule:evenodd;stroke:none" />
      <path
         id="path7603-8"
         d="m -32.95,23.55 q 1.75,1.15 5,1.7 l 14.6,1.2 -20.75,0.05 q -24,-0.15 -41.65,-1 l 35.75,-1.55 7.05,-0.4"
         style="fill:#ffffff;fill-rule:evenodd;stroke:none" />
    </g>
    <g
       id="g7597"
       style="display:none">
      <path
         id="path7601"
         d="m -20.5,25.25 q -4.4,0.9 -10.7,3.2 -17.9,-0.05 -37.65,-0.7 L -128.5,24.5 q 8.75,0.25 29.05,-0.25 l 49.35,-1.9 29.6,2.9"
         style="fill:#0bafdf;fill-rule:evenodd;stroke:none" />
      <path
         id="path7603"
         d="m -32.95,23.55 q 1.75,1.15 5,1.7 l 14.6,1.2 -20.75,0.05 q -24,-0.15 -41.65,-1 l 35.75,-1.55 7.05,-0.4"
         style="fill:#ffffff;fill-rule:evenodd;stroke:none" />
    </g>
    <g
       style="display:none"
       id="layer24" />
  </g>
</svg>
