<?xml version="1.0" encoding="UTF-8" standalone="no"?>
<svg xmlns:xlink="http://www.w3.org/1999/xlink" height="6.1px" width="115.15px" xmlns="http://www.w3.org/2000/svg">
  <g transform="matrix(1, 0, 0, 1, 128.5, -22.35)">
    <path d="M-20.5 25.25 Q-24.9 26.15 -31.2 28.45 -49.1 28.4 -68.85 27.75 L-128.5 24.5 Q-119.75 24.75 -99.45 24.25 L-50.1 22.35 -20.5 25.25" fill="#0bafdf" fill-rule="evenodd" stroke="none"/>
    <path d="M-32.95 23.55 Q-31.2 24.7 -27.95 25.25 L-13.35 26.45 -34.1 26.5 Q-58.1 26.35 -75.75 25.5 L-40.0 23.95 -32.95 23.55" fill="#ffffff" fill-rule="evenodd" stroke="none"/>
  </g>
</svg>
