<?xml version="1.0" encoding="UTF-8" standalone="no"?>
<svg xmlns:xlink="http://www.w3.org/1999/xlink" height="39.8px" width="63.75px" xmlns="http://www.w3.org/2000/svg">
  <g transform="matrix(1, 0, 0, 1, -57.25, 72.65)">
    <path d="M57.25 -32.85 L75.1 -44.35 Q97.3 -59.1 109.0 -69.05 L121.0 -72.65 115.85 -60.95 Q111.6 -57.0 103.95 -51.25 L101.2 -49.9 57.25 -32.85" fill="#0bafdf" fill-rule="evenodd" stroke="none"/>
    <path d="M114.6 -67.35 L111.3 -59.7 Q100.05 -52.4 93.85 -48.95 L91.9 -47.9 74.2 -41.05 84.2 -47.9 Q98.8 -58.25 106.3 -64.9 L114.6 -67.35" fill="#ffffff" fill-rule="evenodd" stroke="none"/>
  </g>
</svg>
