<?xml version="1.0" encoding="UTF-8" standalone="no"?>
<svg xmlns:xlink="http://www.w3.org/1999/xlink" height="13.4px" width="74.95px" xmlns="http://www.w3.org/2000/svg">
  <g transform="matrix(1, 0, 0, 1, -72.6, -4.25)">
    <path d="M135.25 4.25 L147.55 6.75 137.5 14.6 Q131.9 16.15 122.45 17.65 L119.35 17.55 72.6 12.0 93.7 10.2 Q120.25 7.55 135.25 4.25" fill="#0bafdf" fill-rule="evenodd" stroke="none"/>
    <path d="M139.4 8.4 L132.85 13.6 112.45 14.9 110.25 14.95 91.35 12.7 103.45 11.35 Q121.2 9.0 130.9 6.7 L139.4 8.4" fill="#ffffff" fill-rule="evenodd" stroke="none"/>
  </g>
</svg>
