<?xml version="1.0" encoding="UTF-8" standalone="no"?>
<svg xmlns:xlink="http://www.w3.org/1999/xlink" height="104.55px" width="48.25px" xmlns="http://www.w3.org/2000/svg">
  <g transform="matrix(1, 0, 0, 1, 56.25, -42.6)">
    <path d="M-13.4 59.7 Q-20.65 76.05 -29.2 93.9 -44.1 124.9 -56.25 147.15 -52.5 139.3 -44.75 120.45 -36.4 100.0 -26.6 74.5 -19.1 62.2 -12.0 48.6 -13.0 53.0 -13.4 59.7" fill="#0bafdf" fill-rule="evenodd" stroke="none"/>
    <path d="M-18.55 59.35 Q-16.85 58.25 -15.05 55.45 -12.95 52.45 -8.0 42.6 L-16.35 61.65 Q-26.15 83.45 -34.05 99.25 -28.75 86.45 -21.05 65.95 L-18.55 59.35" fill="#ffffff" fill-rule="evenodd" stroke="none"/>
  </g>
</svg>
