<?xml version="1.0" encoding="UTF-8" standalone="no"?>
<svg xmlns:xlink="http://www.w3.org/1999/xlink" height="73.25px" width="21.6px" xmlns="http://www.w3.org/2000/svg">
  <g transform="matrix(1, 0, 0, 1, -16.4, 130.75)">
    <path d="M16.4 -57.5 Q18.85 -67.85 20.95 -78.25 26.2 -104.4 27.4 -119.7 L33.35 -130.75 38.0 -118.8 Q37.8 -113.0 36.45 -103.55 L35.45 -100.65 16.4 -57.5" fill="#0bafdf" fill-rule="evenodd" stroke="none"/>
    <path d="M28.45 -114.85 L32.55 -122.45 35.65 -114.75 Q32.9 -101.6 30.9 -94.8 L30.25 -92.65 22.6 -75.3 24.8 -87.2 Q27.85 -104.85 28.45 -114.85" fill="#ffffff" fill-rule="evenodd" stroke="none"/>
  </g>
</svg>
