<?xml version="1.0" encoding="UTF-8" standalone="no"?>
<svg xmlns:xlink="http://www.w3.org/1999/xlink" height="26.5px" width="28.5px" xmlns="http://www.w3.org/2000/svg">
  <g transform="matrix(1, 0, 0, 1, 0.5, 0.5)">
    <path d="M0.0 0.0 L15.0 6.0 Q15.15 10.35 16.5 11.5 L16.5 16.0 21.5 16.0 21.5 21.5 24.5 22.5 24.5 24.5 Q26.6 24.65 27.5 25.5" fill="none" stroke="#ffff99" stroke-linecap="round" stroke-linejoin="round" stroke-width="1.0"/>
  </g>
</svg>
