<?xml version="1.0" encoding="UTF-8" standalone="no"?>
<svg xmlns:xlink="http://www.w3.org/1999/xlink" height="44.4px" width="32.8px" xmlns="http://www.w3.org/2000/svg">
  <g transform="matrix(1, 0, 0, 1, 0.5, 0.5)">
    <path d="M21.75 5.55 L30.25 5.55 Q30.9 7.5 31.2 9.6 33.35 22.8 28.0 33.8 L19.9 43.4 Q16.1 39.2 18.25 34.55 L13.75 34.55 11.0 31.8 11.0 28.8 9.0 28.8 9.0 26.3 6.25 26.3 6.25 20.55 2.25 20.55 0.0 18.3 0.0 13.55 8.25 14.05 9.45 12.5 Q11.8 9.4 11.5 4.75 L13.05 4.75 13.25 2.05 16.75 2.05 16.75 0.0 21.75 5.55" fill="#000000" fill-rule="evenodd" stroke="none"/>
    <path d="M21.75 5.55 L16.75 0.0 16.75 2.05 13.25 2.05 13.05 4.75 11.5 4.75 Q11.8 9.4 9.45 12.5 L8.25 14.05 0.0 13.55 0.0 18.3 2.25 20.55 6.25 20.55 6.25 26.3 9.0 26.3 9.0 28.8 11.0 28.8 11.0 31.8 13.75 34.55 18.25 34.55 Q16.1 39.2 19.9 43.4 L28.0 33.8 Q33.35 22.8 31.2 9.6 30.9 7.5 30.25 5.55 L21.75 5.55" fill="none" stroke="#ffff99" stroke-linecap="round" stroke-linejoin="round" stroke-width="1.0"/>
  </g>
</svg>
