<?xml version="1.0" encoding="UTF-8" standalone="no"?>
<svg xmlns:xlink="http://www.w3.org/1999/xlink" height="36.8px" width="31.25px" xmlns="http://www.w3.org/2000/svg">
  <g transform="matrix(1, 0, 0, 1, 0.5, 0.5)">
    <path d="M26.5 7.75 L30.25 11.0 30.25 18.55 Q28.8 19.05 27.55 20.05 24.4 22.65 25.0 27.3 L26.5 28.8 26.5 35.8 Q18.45 32.5 11.65 26.45 4.55 20.2 0.0 12.5 L10.5 12.5 10.5 6.0 23.0 6.0 23.0 0.0 28.5 0.0 29.25 3.25 28.0 3.25 28.0 4.0 26.5 6.5 26.5 7.75" fill="#000000" fill-rule="evenodd" stroke="none"/>
    <path d="M26.5 7.75 L26.5 6.5 28.0 4.0 28.0 3.25 29.25 3.25 28.5 0.0 23.0 0.0 23.0 6.0 10.5 6.0 10.5 12.5 0.0 12.5 Q4.55 20.2 11.65 26.45 18.45 32.5 26.5 35.8 L26.5 28.8 25.0 27.3 Q24.4 22.65 27.55 20.05 28.8 19.05 30.25 18.55 L30.25 11.0 26.5 7.75" fill="none" stroke="#ffff99" stroke-linecap="round" stroke-linejoin="round" stroke-width="1.0"/>
  </g>
</svg>
