<?xml version="1.0" encoding="UTF-8" standalone="no"?>
<svg xmlns:xlink="http://www.w3.org/1999/xlink" height="31.25px" width="24.8px" xmlns="http://www.w3.org/2000/svg">
  <g transform="matrix(1, 0, 0, 1, 0.5, 0.5)">
    <path d="M22.1 24.4 L17.4 26.1 Q14.15 31.2 7.65 30.0 L0.0 29.8 0.6 21.3 Q2.4 20.45 2.8 18.4 L3.2 18.4 7.2 12.0 Q9.2 7.75 7.2 3.4 L6.1 2.2 4.2 1.0 4.2 0.3 Q4.45 0.0 4.8 0.0 L8.7 1.2 9.9 2.2 9.9 2.5 10.5 2.5 10.5 5.4 11.4 5.4 13.4 7.0 13.4 7.7 15.3 9.6 15.3 13.3 21.8 13.3 21.8 19.3 23.8 22.1 Q23.6 23.65 22.1 24.4" fill="#000000" fill-rule="evenodd" stroke="none"/>
    <path d="M22.1 24.4 L17.4 26.1 Q14.15 31.2 7.65 30.0 L0.0 29.8 0.6 21.3 Q2.4 20.45 2.8 18.4 L3.2 18.4 7.2 12.0 Q9.2 7.75 7.2 3.4 L6.1 2.2 4.2 1.0 4.2 0.3 Q4.45 0.0 4.8 0.0 L8.7 1.2 9.9 2.2 9.9 2.5 10.5 2.5 10.5 5.4 11.4 5.4 13.4 7.0 13.4 7.7 15.3 9.6 15.3 13.3 21.8 13.3 21.8 19.3 23.8 22.1 Q23.6 23.65 22.1 24.4" fill="none" stroke="#ffff99" stroke-linecap="round" stroke-linejoin="round" stroke-width="1.0"/>
  </g>
</svg>
