<?xml version="1.0" encoding="UTF-8" standalone="no"?>
<svg xmlns:xlink="http://www.w3.org/1999/xlink" height="32.3px" width="36.2px" xmlns="http://www.w3.org/2000/svg">
  <g transform="matrix(1, 0, 0, 1, 0.5, 0.5)">
    <path d="M35.2 15.0 Q34.25 15.3 34.1 16.0 L30.8 16.0 30.8 16.7 Q27.7 16.3 25.7 18.2 L24.1 23.9 Q23.55 23.85 23.2 24.3 L23.2 24.9 10.2 24.9 10.2 27.2 Q11.05 28.1 10.6 29.2 L6.4 30.5 3.7 30.5 Q3.1 30.8 3.2 31.3 L0.3 24.3 Q-0.1 21.0 0.0 17.6 0.15 13.5 1.75 9.7 3.35 5.8 5.65 2.3 L6.7 0.2 7.7 0.0 Q8.2 0.0 8.2 0.4 8.35 1.25 9.1 1.4 L9.8 1.4 9.8 3.1 11.1 3.9 35.2 14.3 35.2 15.0" fill="#000000" fill-rule="evenodd" stroke="none"/>
    <path d="M35.2 15.0 Q34.25 15.3 34.1 16.0 L30.8 16.0 30.8 16.7 Q27.7 16.3 25.7 18.2 L24.1 23.9 Q23.55 23.85 23.2 24.3 L23.2 24.9 10.2 24.9 10.2 27.2 Q11.05 28.1 10.6 29.2 L6.4 30.5 3.7 30.5 Q3.1 30.8 3.2 31.3 L0.3 24.3 Q-0.1 21.0 0.0 17.6 0.15 13.5 1.75 9.7 3.35 5.8 5.65 2.3 L6.7 0.2 7.7 0.0 Q8.2 0.0 8.2 0.4 8.35 1.25 9.1 1.4 L9.8 1.4 9.8 3.1 11.1 3.9 35.2 14.3 35.2 15.0" fill="none" stroke="#ffff99" stroke-linecap="round" stroke-linejoin="round" stroke-width="1.0"/>
  </g>
</svg>
