<?xml version="1.0" encoding="UTF-8" standalone="no"?>
<svg xmlns:xlink="http://www.w3.org/1999/xlink" height="32.6px" width="30.1px" xmlns="http://www.w3.org/2000/svg">
  <g transform="matrix(1, 0, 0, 1, 0.5, 0.5)">
    <path d="M28.5 14.5 Q23.6 17.2 22.55 22.85 L22.2 23.6 9.0 22.9 9.0 29.1 6.5 29.1 6.5 29.5 5.4 29.5 3.4 31.6 1.7 29.4 1.7 28.2 0.7 26.4 0.7 25.7 0.0 22.7 0.0 12.9 3.8 3.6 3.8 2.7 8.1 0.0 8.7 0.0 10.0 1.5 10.0 5.4 28.65 14.2 28.5 14.5" fill="#000000" fill-rule="evenodd" stroke="none"/>
    <path d="M28.65 14.2 L29.1 14.4 28.5 14.5 Q23.6 17.2 22.55 22.85 L22.2 23.6 9.0 22.9 9.0 29.1 6.5 29.1 6.5 29.5 5.4 29.5 3.4 31.6 1.7 29.4 1.7 28.2 0.7 26.4 0.7 25.7 0.0 22.7 0.0 12.9 3.8 3.6 3.8 2.7 8.1 0.0 8.7 0.0 10.0 1.5 10.0 5.4 28.65 14.2" fill="none" stroke="#ffff99" stroke-linecap="round" stroke-linejoin="round" stroke-width="1.0"/>
  </g>
</svg>
