<?xml version="1.0" encoding="UTF-8" standalone="no"?>
<svg xmlns:xlink="http://www.w3.org/1999/xlink" height="15.4px" width="36.2px" xmlns="http://www.w3.org/2000/svg">
  <g transform="matrix(1, 0, 0, 1, 0.5, 0.5)">
    <path d="M22.6 3.35 Q20.35 4.45 18.65 6.4 17.5 7.7 16.6 9.15 L16.6 10.35 17.7 14.4 12.0 11.95 0.0 11.55 Q5.35 6.45 11.85 3.25 18.8 -0.15 26.8 0.0 L35.2 0.75 Q28.5 0.35 22.6 3.35" fill="#000000" fill-rule="evenodd" stroke="none"/>
    <path d="M22.6 3.35 Q20.35 4.45 18.65 6.4 17.5 7.7 16.6 9.15 L16.6 10.35 17.7 14.4 12.0 11.95 0.0 11.55 Q5.35 6.45 11.85 3.25 18.8 -0.15 26.8 0.0 L35.2 0.75 Q28.5 0.35 22.6 3.35" fill="none" stroke="#ffff99" stroke-linecap="round" stroke-linejoin="round" stroke-width="1.0"/>
  </g>
</svg>
