<?xml version="1.0" encoding="UTF-8" standalone="no"?>
<svg xmlns:xlink="http://www.w3.org/1999/xlink" height="140.45px" width="178.2px" xmlns="http://www.w3.org/2000/svg">
  <g transform="matrix(1, 0, 0, 1, 106.1, 66.5)">
    <path d="M24.0 -61.6 Q25.05 -61.35 25.0 -62.0 M33.2 -58.4 Q33.95 -57.35 33.8 -57.95 M25.6 -53.2 Q23.9 -54.05 25.6 -54.35 M16.4 -56.4 Q16.3 -57.5 16.85 -57.9 M21.6 -38.0 L22.8 -38.0 M26.0 -28.8 Q26.85 -28.05 27.15 -29.2 M40.4 -32.4 L40.4 -32.0 M34.8 -26.8 L34.8 -26.0 M16.4 -33.2 L16.7 -32.75 M14.0 -24.0 Q14.35 -24.0 14.55 -24.25 L14.8 -24.8 M24.0 -23.2 L23.3 -23.35 M29.6 -17.2 Q30.3 -16.3 30.2 -17.15 M61.6 -33.6 Q61.05 -33.8 62.05 -34.3 M61.6 -26.4 L63.1 -26.35 M56.4 -47.6 L56.4 -48.4 M47.6 -32.0 L48.0 -32.2 M48.4 -20.4 Q49.1 -19.75 49.15 -20.4 M68.4 -24.8 L68.95 -24.6 69.2 -24.0 M60.8 1.6 L61.0 2.45 Q61.25 2.8 61.6 2.8 M69.55 8.5 L70.0 8.8 M70.8 16.4 L71.6 15.2 M46.4 13.6 L45.6 13.6 M44.4 24.0 L43.95 23.7 M53.6 11.6 L52.4 11.6 M50.8 3.6 Q52.0 4.8 52.95 3.3 M46.8 31.2 Q47.7 30.85 47.8 30.4 M46.4 44.0 Q45.75 44.1 46.2 44.8 M49.2 36.0 L49.2 36.8 M70.4 26.4 L70.4 25.6 M65.6 36.0 L66.0 35.2 M38.4 1.6 Q37.4 0.7 39.25 1.55 M11.2 15.2 L11.6 15.6 M10.0 4.0 L10.2 4.4 M17.2 6.8 Q17.2 6.45 17.55 6.2 L18.4 6.0 M2.4 14.8 Q3.0 13.85 3.6 14.6 M18.8 19.2 Q18.75 19.85 19.5 19.45 M6.4 46.0 L6.4 44.8 M16.0 44.8 L15.2 43.4 M5.2 49.2 L6.8 49.2 M7.6 27.6 L6.8 27.95 M2.0 47.6 L2.35 46.8 M40.0 38.8 L37.7 36.9 M33.6 42.9 L33.6 44.0 M21.2 46.0 L21.0 46.8 M21.2 36.4 L20.4 36.75 M24.4 66.0 L24.9 65.95 M22.8 59.6 L22.6 60.75 M26.0 53.6 L26.35 54.4 M16.4 50.8 L16.4 50.4 M19.6 56.8 L19.95 56.0 M8.0 50.8 L8.4 50.6 M2.8 54.0 L4.0 54.0 M1.6 58.0 L1.6 56.8 M20.1 53.95 Q21.0 53.8 21.35 54.3 M44.0 52.0 L42.4 50.4 M-90.0 -12.8 L-90.0 -13.6 M-88.4 -20.0 L-87.8 -20.4 M-22.4 -66.0 Q-21.7 -64.95 -21.95 -66.0 M-24.6 -51.4 L-24.95 -50.95 M-21.4 -54.0 L-21.2 -53.85 M-21.8 -50.8 Q-21.5 -50.4 -21.6 -49.8 M-15.6 -56.2 L-15.75 -55.8 M-18.8 -54.6 L-18.4 -54.6 M-45.6 -56.4 L-45.2 -56.8 M-53.6 -34.8 L-53.2 -35.4 M-45.4 -45.2 Q-44.8 -45.05 -45.25 -44.65 M-54.0 -44.4 L-54.2 -44.0 M-42.4 -44.0 Q-42.05 -44.15 -42.1 -44.4 M-65.2 -12.4 L-64.75 -12.7 M-70.0 -17.2 L-70.0 -18.0 M-69.2 -14.8 L-68.8 -14.2 M-66.8 -20.0 L-66.5 -20.45 M-71.2 -22.0 L-70.8 -21.6 M-55.2 -4.8 L-55.55 -5.6 M-54.4 -12.8 Q-54.1 -14.1 -54.8 -14.2 M-59.6 -18.4 Q-58.95 -19.3 -59.9 -19.75 M-59.6 -24.4 L-59.9 -24.85 M-61.2 -9.6 L-60.75 -9.9 M-8.8 -46.0 L-8.8 -46.4 M-15.6 -40.0 L-15.6 -39.2 M-24.2 -46.0 L-24.0 -45.85 M-27.4 -47.4 L-26.6 -47.4 M-25.2 -42.4 Q-25.85 -42.55 -25.95 -42.2 M-30.6 -40.8 L-30.4 -40.65 M-38.8 -44.2 Q-38.25 -44.0 -38.4 -43.5 M-35.6 -43.0 L-35.4 -43.2 M-23.2 -8.8 Q-24.0 -7.65 -22.4 -7.95 M-26.4 -16.0 Q-25.45 -15.05 -25.8 -16.35 M-10.8 -6.0 L-9.9 -4.9 M-19.2 -18.0 Q-18.75 -18.6 -18.0 -18.45 M-10.4 22.0 Q-11.1 22.3 -11.0 22.75 M-2.8 23.6 L-2.1 23.75 M-20.0 2.8 Q-19.3 1.9 -19.2 2.6 M-17.2 14.0 Q-15.65 12.7 -15.6 14.0 M-7.6 6.0 Q-7.7 7.1 -6.85 7.4 M-25.6 15.2 L-25.4 13.25 M-36.0 28.8 L-35.7 28.35 M-40.05 31.3 Q-40.15 30.7 -39.65 30.6 M-36.4 45.6 L-35.6 45.6 M-32.0 26.8 Q-31.4 26.05 -31.4 27.2 M-8.4 44.0 Q-7.3 45.25 -7.6 45.4 M-21.6 22.8 L-20.0 22.8 M-43.2 20.8 L-43.2 22.0 M-58.4 22.0 L-58.8 21.6 M-56.8 0.6 L-56.4 0.8 M-54.8 11.6 Q-55.35 10.15 -55.55 11.2 M-52.0 23.6 Q-52.65 23.5 -51.9 22.9 M-60.8 8.8 Q-61.5 8.5 -61.4 8.05 M-66.0 11.2 L-66.0 10.4 M-72.8 11.6 L-72.8 10.8 M-67.2 6.8 L-67.8 6.4 M-74.0 4.4 L-73.9 4.95 -73.6 5.2 -73.2 4.8 M-67.6 30.4 Q-66.1 30.7 -65.8 30.0 M-69.2 47.6 Q-68.55 48.4 -69.95 48.6 M-46.8 31.2 L-46.0 31.2 M-43.2 30.0 L-42.65 29.85 -42.4 29.6 -42.8 29.2 M-52.4 44.4 L-52.45 44.1 M-60.4 2.8 L-60.8 2.0 M-41.2 53.2 L-41.0 52.05 M-2.0 61.2 Q-0.85 61.05 -1.2 62.2 M-4.4 66.0 Q-4.65 65.15 -4.0 65.2 M-3.2 72.8 Q-3.85 73.6 -4.75 73.4 M-2.8 59.2 Q-2.45 59.2 -2.25 58.85 -2.0 58.5 -2.0 58.0 M-10.4 55.6 L-9.6 55.6 M-39.6 57.2 Q-40.5 56.5 -39.6 56.4 M-36.8 61.6 Q-36.45 61.6 -36.25 61.35 -36.0 61.15 -36.0 60.8 M-33.6 67.2 L-34.8 67.2 M-35.2 71.6 Q-34.25 73.4 -36.8 73.2 M-36.0 52.4 L-35.65 51.6 M-40.8 45.6 Q-41.05 44.55 -40.0 44.6 M-92.0 12.4 L-92.4 12.4 M-105.6 3.6 Q-104.2 3.05 -105.1 4.1 M-1.2 4.8 L0.0 4.8 M-0.4 52.0 L0.75 51.8" fill="none" stroke="#000000" stroke-linecap="round" stroke-linejoin="round" stroke-width="1.0"/>
    <path d="M21.8 63.4 L21.15 63.85" fill="none" stroke="#ffff99" stroke-linecap="round" stroke-linejoin="round" stroke-width="1.0"/>
  </g>
</svg>
