<?xml version="1.0" encoding="UTF-8" standalone="no"?>
<svg xmlns:xlink="http://www.w3.org/1999/xlink" height="20.0px" width="27.4px" xmlns="http://www.w3.org/2000/svg">
  <g transform="matrix(1, 0, 0, 1, 0.5, 0.5)">
    <path d="M24.95 13.55 L24.0 13.8 Q22.85 11.7 20.9 10.5 18.75 9.2 16.6 8.4 L7.8 8.4 0.0 13.8 2.2 6.0 4.0 4.2 4.0 1.6 4.4 0.4 23.8 9.2 24.95 13.55" fill="#000000" fill-rule="evenodd" stroke="none"/>
    <path d="M24.95 13.55 L23.8 9.2 4.4 0.4 4.0 1.6 4.0 4.2 2.2 6.0 0.0 13.8 7.8 8.4 16.6 8.4 Q18.75 9.2 20.9 10.5 22.85 11.7 24.0 13.8 L26.4 19.0 24.95 13.55 M4.4 0.4 L3.6 0.0 4.4 0.35 4.4 0.4" fill="none" stroke="#ffff99" stroke-linecap="round" stroke-linejoin="round" stroke-width="1.0"/>
  </g>
</svg>
