<?xml version="1.0" encoding="UTF-8" standalone="no"?>
<svg xmlns:xlink="http://www.w3.org/1999/xlink" height="32.0px" width="23.25px" xmlns="http://www.w3.org/2000/svg">
  <g transform="matrix(1, 0, 0, 1, 0.5, 0.5)">
    <path d="M7.05 0.3 L7.05 2.0 Q6.9 2.6 7.65 3.4 L10.85 8.6 17.65 11.6 18.45 11.6 20.05 12.8 22.25 15.4 22.25 16.6 17.65 21.2 7.05 19.6 Q5.6 20.35 6.4 21.8 L6.4 29.0 Q6.2 30.65 4.65 31.0 2.5 30.75 2.05 28.4 L1.4 25.75 Q-0.95 18.35 0.7 10.6 L1.25 8.05 Q2.6 1.95 7.05 0.3" fill="#000000" fill-rule="evenodd" stroke="none"/>
    <path d="M7.05 0.3 L7.05 2.0 Q6.9 2.6 7.65 3.4 L10.85 8.6 17.65 11.6 18.45 11.6 20.05 12.8 22.25 15.4 22.25 16.6 17.65 21.2 7.05 19.6 Q5.6 20.35 6.4 21.8 L6.4 29.0 Q6.2 30.65 4.65 31.0 2.5 30.75 2.05 28.4 L1.4 25.75 Q-0.95 18.35 0.7 10.6 L1.25 8.05 Q2.6 1.95 7.05 0.3 L8.05 0.0" fill="none" stroke="#ffff99" stroke-linecap="round" stroke-linejoin="round" stroke-width="1.0"/>
  </g>
</svg>
