<?xml version="1.0" encoding="UTF-8" standalone="no"?>
<svg xmlns:xlink="http://www.w3.org/1999/xlink" height="37.25px" width="383.95px" xmlns="http://www.w3.org/2000/svg">
  <g transform="matrix(1, 0, 0, 1, 177.95, -1.75)">
    <path d="M-177.95 39.0 L-127.9 31.5 -95.45 26.75 Q-20.8 15.9 15.9 11.5 L29.0 10.0 Q64.0 6.25 138.5 3.75 L146.05 3.5 Q178.85 2.45 206.0 2.0 L205.2 2.1 132.95 12.75 128.1 13.45 Q47.25 25.05 32.2 25.85 L23.1 26.35 -177.95 39.0" fill="#ccff00" fill-opacity="0.44705883" fill-rule="evenodd" stroke="none">
      <animate attributeName="fill" dur="2s" repeatCount="indefinite" values="#ccff00;#ccff01"/>
      <animate attributeName="fill-opacity" dur="2s" repeatCount="indefinite" values="0.44705883;0.44705883"/>
      <animate attributeName="d" dur="2s" repeatCount="indefinite" values="M-177.95 39.0 L-127.9 31.5 -95.45 26.75 Q-20.8 15.9 15.9 11.5 L29.0 10.0 Q64.0 6.25 138.5 3.75 L146.05 3.5 Q178.85 2.45 206.0 2.0 L205.2 2.1 132.95 12.75 128.1 13.45 Q47.25 25.05 32.2 25.85 L23.1 26.35 -177.95 39.0;M-133.35 32.0 L-90.6 27.6 -62.05 24.85 Q-14.35 20.25 33.35 15.65 L43.4 14.7 Q89.8 10.6 136.15 6.55 L142.4 6.05 Q167.8 3.95 193.15 1.85 L194.15 1.75 132.1 7.95 127.45 8.4 Q86.95 12.3 46.45 16.15 L36.65 17.05 -133.35 32.0"/>
    </path>
    <path d="M-177.95 39.0 L23.1 26.35 32.2 25.85 Q47.25 25.05 128.1 13.45 L132.95 12.75 205.2 2.1 206.0 2.0 Q178.85 2.45 146.05 3.5 L138.5 3.75 Q64.0 6.25 29.0 10.0 L15.9 11.5 Q-20.8 15.9 -95.45 26.75 L-127.9 31.5 -177.95 39.0" fill="none" stroke="#000000" stroke-linecap="round" stroke-linejoin="round" stroke-opacity="0.0" stroke-width="1.0">
      <animate attributeName="stroke" dur="2s" repeatCount="indefinite" values="#000000;#000001"/>
      <animate attributeName="stroke-width" dur="2s" repeatCount="indefinite" values="0.0;0.0"/>
      <animate attributeName="fill-opacity" dur="2s" repeatCount="indefinite" values="0.0;0.0"/>
      <animate attributeName="d" dur="2s" repeatCount="indefinite" values="M-177.95 39.0 L23.1 26.35 32.2 25.85 Q47.25 25.05 128.1 13.45 L132.95 12.75 205.2 2.1 206.0 2.0 Q178.85 2.45 146.05 3.5 L138.5 3.75 Q64.0 6.25 29.0 10.0 L15.9 11.5 Q-20.8 15.9 -95.45 26.75 L-127.9 31.5 -177.95 39.0;M-133.35 32.0 L36.65 17.05 46.45 16.15 Q86.95 12.3 127.45 8.4 L132.1 7.95 194.15 1.75 193.15 1.85 Q167.8 3.95 142.4 6.05 L136.15 6.55 Q89.8 10.6 43.4 14.7 L33.35 15.65 Q-14.35 20.25 -62.05 24.85 L-90.6 27.6 -133.35 32.0"/>
    </path>
  </g>
</svg>
