<?xml version="1.0" encoding="UTF-8" standalone="no"?>
<svg xmlns:xlink="http://www.w3.org/1999/xlink" height="30.15px" width="229.8px" xmlns="http://www.w3.org/2000/svg">
  <g transform="matrix(1, 0, 0, 1, 75.75, 3.65)">
    <path d="M-75.75 25.5 L-75.75 25.5 Q-58.1 26.35 -34.1 26.5 -8.2 26.65 12.9 25.7 L23.75 25.15 45.5 23.25 Q77.15 19.65 115.65 11.1 L120.75 9.95 147.85 3.3 154.05 -2.95 151.45 -3.15 145.4 -3.65 Q136.05 -0.15 118.65 4.2 L112.55 5.7 Q80.4 13.3 43.75 17.25 13.8 20.45 -18.35 22.65 L-40.0 23.95 -75.75 25.5" fill="#ffffff" fill-rule="evenodd" stroke="none">
      <animate attributeName="fill" dur="2s" repeatCount="indefinite" values="#ffffff;#ffffff"/>
      <animate attributeName="fill-opacity" dur="2s" repeatCount="indefinite" values="1.0;1.0"/>
      <animate attributeName="d" dur="2s" repeatCount="indefinite" values="M-75.75 25.5 L-75.75 25.5 Q-58.1 26.35 -34.1 26.5 -8.2 26.65 12.9 25.7 L23.75 25.15 45.5 23.25 Q77.15 19.65 115.65 11.1 L120.75 9.95 147.85 3.3 154.05 -2.95 151.45 -3.15 145.4 -3.65 Q136.05 -0.15 118.65 4.2 L112.55 5.7 Q80.4 13.3 43.75 17.25 13.8 20.45 -18.35 22.65 L-40.0 23.95 -75.75 25.5;M106.85 7.0 L106.95 7.0 Q111.45 7.0 115.95 7.0 120.9 7.0 125.85 7.0 L128.05 6.75 132.3 6.1 Q139.75 4.65 147.15 3.2 L148.2 3.0 152.35 -1.2 153.65 -2.55 154.05 -2.95 152.75 -3.05 Q149.7 -3.3 146.7 -3.55 L145.4 -3.65 Q139.8 -1.55 131.35 0.85 125.0 2.55 118.65 4.2 L114.2 5.3 106.85 7.0"/>
    </path>
    <path d="M-75.75 25.5 L-40.0 23.95 -18.35 22.65 Q13.8 20.45 43.75 17.25 80.4 13.3 112.55 5.7 L118.65 4.2 Q136.05 -0.15 145.4 -3.65 L151.45 -3.15 154.05 -2.95 147.85 3.3 120.75 9.95 115.65 11.1 Q77.15 19.65 45.5 23.25 L23.75 25.15 12.9 25.7 Q-8.2 26.65 -34.1 26.5 -58.1 26.35 -75.75 25.5 L-75.75 25.5" fill="none" stroke="#000000" stroke-linecap="round" stroke-linejoin="round" stroke-opacity="0.0" stroke-width="1.0">
      <animate attributeName="stroke" dur="2s" repeatCount="indefinite" values="#000000;#000001"/>
      <animate attributeName="stroke-width" dur="2s" repeatCount="indefinite" values="0.0;0.0"/>
      <animate attributeName="fill-opacity" dur="2s" repeatCount="indefinite" values="0.0;0.0"/>
      <animate attributeName="d" dur="2s" repeatCount="indefinite" values="M-75.75 25.5 L-40.0 23.95 -18.35 22.65 Q13.8 20.45 43.75 17.25 80.4 13.3 112.55 5.7 L118.65 4.2 Q136.05 -0.15 145.4 -3.65 L151.45 -3.15 154.05 -2.95 147.85 3.3 120.75 9.95 115.65 11.1 Q77.15 19.65 45.5 23.25 L23.75 25.15 12.9 25.7 Q-8.2 26.65 -34.1 26.5 -58.1 26.35 -75.75 25.5 L-75.75 25.5;M106.85 7.0 L114.2 5.3 118.65 4.2 Q125.0 2.55 131.35 0.85 139.8 -1.55 145.4 -3.65 L146.7 -3.55 Q149.7 -3.3 152.75 -3.05 L154.05 -2.95 153.65 -2.55 152.35 -1.2 148.2 3.0 147.15 3.2 Q139.75 4.65 132.3 6.1 L128.05 6.75 125.85 7.0 Q120.9 7.0 115.95 7.0 111.45 7.0 106.95 7.0 L106.85 7.0"/>
    </path>
  </g>
</svg>
