<?xml version="1.0" encoding="UTF-8" standalone="no"?>
<svg xmlns:xlink="http://www.w3.org/1999/xlink" height="34.95px" width="290.45px" xmlns="http://www.w3.org/2000/svg">
  <g transform="matrix(1, 0, 0, 1, 128.5, 6.5)">
    <path d="M-128.5 24.5 L-128.4 24.5 -68.85 27.75 Q-0.1 30.0 45.5 25.0 L51.15 24.35 63.25 22.85 Q94.15 18.8 119.95 12.85 L126.6 11.25 Q144.35 6.9 152.95 3.5 L161.95 -5.5 159.85 -5.7 149.45 -6.5 Q136.5 -2.05 114.35 3.05 L108.9 4.25 Q56.8 15.75 -1.0 19.5 L-46.55 22.15 -99.45 24.25 Q-119.75 24.75 -128.5 24.5" fill="#0bafdf" fill-rule="evenodd" stroke="none">
      <animate attributeName="fill" dur="2s" repeatCount="indefinite" values="#0bafdf;#0bafe0"/>
      <animate attributeName="fill-opacity" dur="2s" repeatCount="indefinite" values="1.0;1.0"/>
      <animate attributeName="d" dur="2s" repeatCount="indefinite" values="M-128.5 24.5 L-128.4 24.5 -68.85 27.75 Q-0.1 30.0 45.5 25.0 L51.15 24.35 63.25 22.85 Q94.15 18.8 119.95 12.85 L126.6 11.25 Q144.35 6.9 152.95 3.5 L161.95 -5.5 159.85 -5.7 149.45 -6.5 Q136.5 -2.05 114.35 3.05 L108.9 4.25 Q56.8 15.75 -1.0 19.5 L-46.55 22.15 -99.45 24.25 Q-119.75 24.75 -128.5 24.5;M88.05 8.5 L88.05 8.5 103.95 8.5 Q118.85 8.5 133.75 8.5 L135.2 8.5 138.3 8.25 Q147.5 5.65 152.95 3.5 L154.15 2.3 Q156.65 -0.2 159.15 -2.7 L161.55 -5.1 161.95 -5.5 159.25 -5.7 Q154.35 -6.1 149.45 -6.5 L148.4 -6.1 Q137.45 -2.45 120.3 1.6 L108.9 4.25 95.55 7.05 Q91.8 7.8 88.05 8.5"/>
    </path>
    <path d="M-128.5 24.5 Q-119.75 24.75 -99.45 24.25 L-46.55 22.15 -1.0 19.5 Q56.8 15.75 108.9 4.25 L114.35 3.05 Q136.5 -2.05 149.45 -6.5 L159.85 -5.7 161.95 -5.5 152.95 3.5 Q144.35 6.9 126.6 11.25 L119.95 12.85 Q94.15 18.8 63.25 22.85 L51.15 24.35 45.5 25.0 Q-0.1 30.0 -68.85 27.75 L-128.4 24.5 -128.5 24.5" fill="none" stroke="#000000" stroke-linecap="round" stroke-linejoin="round" stroke-opacity="0.0" stroke-width="1.0">
      <animate attributeName="stroke" dur="2s" repeatCount="indefinite" values="#000000;#000001"/>
      <animate attributeName="stroke-width" dur="2s" repeatCount="indefinite" values="0.0;0.0"/>
      <animate attributeName="fill-opacity" dur="2s" repeatCount="indefinite" values="0.0;0.0"/>
      <animate attributeName="d" dur="2s" repeatCount="indefinite" values="M-128.5 24.5 Q-119.75 24.75 -99.45 24.25 L-46.55 22.15 -1.0 19.5 Q56.8 15.75 108.9 4.25 L114.35 3.05 Q136.5 -2.05 149.45 -6.5 L159.85 -5.7 161.95 -5.5 152.95 3.5 Q144.35 6.9 126.6 11.25 L119.95 12.85 Q94.15 18.8 63.25 22.85 L51.15 24.35 45.5 25.0 Q-0.1 30.0 -68.85 27.75 L-128.4 24.5 -128.5 24.5;M88.05 8.5 Q91.8 7.8 95.55 7.05 L108.9 4.25 120.3 1.6 Q137.45 -2.45 148.4 -6.1 L149.45 -6.5 Q154.35 -6.1 159.25 -5.7 L161.95 -5.5 161.55 -5.1 159.15 -2.7 Q156.65 -0.2 154.15 2.3 L152.95 3.5 Q147.5 5.65 138.3 8.25 L135.2 8.5 133.75 8.5 Q118.85 8.5 103.95 8.5 L88.05 8.5 88.05 8.5"/>
    </path>
  </g>
</svg>
