<?xml version="1.0" encoding="UTF-8" standalone="no"?>
<svg xmlns:xlink="http://www.w3.org/1999/xlink" height="14.95px" width="231.5px" xmlns="http://www.w3.org/2000/svg">
  <g transform="matrix(1, 0, 0, 1, 92.1, -6.7)">
    <path d="M-92.1 9.6 Q-74.7 12.55 -50.95 15.55 -24.7 18.8 -3.2 20.3 L7.65 21.0 28.5 21.65 Q60.35 21.75 99.6 17.8 L104.05 17.3 132.5 13.8 139.4 8.4 137.1 7.9 130.9 6.7 Q121.2 9.0 103.45 11.35 L97.6 12.05 Q64.6 15.8 27.55 15.45 L-34.75 13.55 -56.5 12.35 -92.1 9.6" fill="#ffffff" fill-rule="evenodd" stroke="none">
      <animate attributeName="fill" dur="2s" repeatCount="indefinite" values="#ffffff;#ffffff"/>
      <animate attributeName="fill-opacity" dur="2s" repeatCount="indefinite" values="1.0;1.0"/>
      <animate attributeName="d" dur="2s" repeatCount="indefinite" values="M-92.1 9.6 Q-74.7 12.55 -50.95 15.55 -24.7 18.8 -3.2 20.3 L7.65 21.0 28.5 21.65 Q60.35 21.75 99.6 17.8 L104.05 17.3 132.5 13.8 139.4 8.4 137.1 7.9 130.9 6.7 Q121.2 9.0 103.45 11.35 L97.6 12.05 Q64.6 15.8 27.55 15.45 L-34.75 13.55 -56.5 12.35 -92.1 9.6;M91.35 12.7 Q95.8 13.25 100.25 13.75 105.25 14.35 110.25 14.95 L112.45 14.9 116.9 14.75 Q124.45 14.2 131.95 13.7 L132.85 13.6 137.55 9.9 139.0 8.7 139.4 8.4 138.0 8.1 Q135.05 7.5 132.1 6.9 L130.9 6.7 Q123.75 8.1 116.6 9.45 L103.45 11.35 98.85 11.85 91.35 12.7"/>
    </path>
    <path d="M-92.1 9.6 L-56.5 12.35 -34.75 13.55 27.55 15.45 Q64.6 15.8 97.6 12.05 L103.45 11.35 Q121.2 9.0 130.9 6.7 L137.1 7.9 139.4 8.4 132.5 13.8 104.05 17.3 99.6 17.8 Q60.35 21.75 28.5 21.65 L7.65 21.0 -3.2 20.3 Q-24.7 18.8 -50.95 15.55 -74.7 12.55 -92.1 9.6" fill="none" stroke="#000000" stroke-linecap="round" stroke-linejoin="round" stroke-opacity="0.0" stroke-width="1.0">
      <animate attributeName="stroke" dur="2s" repeatCount="indefinite" values="#000000;#000001"/>
      <animate attributeName="stroke-width" dur="2s" repeatCount="indefinite" values="0.0;0.0"/>
      <animate attributeName="fill-opacity" dur="2s" repeatCount="indefinite" values="0.0;0.0"/>
      <animate attributeName="d" dur="2s" repeatCount="indefinite" values="M-92.1 9.6 L-56.5 12.35 -34.75 13.55 27.55 15.45 Q64.6 15.8 97.6 12.05 L103.45 11.35 Q121.2 9.0 130.9 6.7 L137.1 7.9 139.4 8.4 132.5 13.8 104.05 17.3 99.6 17.8 Q60.35 21.75 28.5 21.65 L7.65 21.0 -3.2 20.3 Q-24.7 18.8 -50.95 15.55 -74.7 12.55 -92.1 9.6;M91.35 12.7 L98.85 11.85 103.45 11.35 116.6 9.45 Q123.75 8.1 130.9 6.7 L132.1 6.9 Q135.05 7.5 138.0 8.1 L139.4 8.4 139.0 8.7 137.55 9.9 132.85 13.6 131.95 13.7 Q124.45 14.2 116.9 14.75 L112.45 14.9 110.25 14.95 Q105.25 14.35 100.25 13.75 95.8 13.25 91.35 12.7"/>
    </path>
  </g>
</svg>
