<?xml version="1.0" encoding="UTF-8" standalone="no"?>
<svg xmlns:xlink="http://www.w3.org/1999/xlink" height="173.55px" width="344.5px" xmlns="http://www.w3.org/2000/svg">
  <g transform="matrix(1, 0, 0, 1, 174.7, 69.6)">
    <path d="M-174.7 103.95 L-130.8 78.8 -102.2 62.6 Q-36.55 25.45 -3.9 8.05 L7.75 1.95 Q38.95 -14.2 107.5 -43.5 L113.75 -46.15 Q144.35 -59.25 169.8 -69.6 L169.2 -69.2 Q138.5 -51.65 105.45 -33.05 L101.35 -30.75 Q30.2 9.4 16.4 15.6 L7.8 19.55 Q-28.35 36.1 -174.7 103.95" fill="#ccff00" fill-opacity="0.44705883" fill-rule="evenodd" stroke="none">
      <animate attributeName="fill" dur="2s" repeatCount="indefinite" values="#ccff00;#ccff01"/>
      <animate attributeName="fill-opacity" dur="2s" repeatCount="indefinite" values="0.44705883;0.44705883"/>
      <animate attributeName="d" dur="2s" repeatCount="indefinite" values="M-174.7 103.95 L-130.8 78.8 -102.2 62.6 Q-36.55 25.45 -3.9 8.05 L7.75 1.95 Q38.95 -14.2 107.5 -43.5 L113.75 -46.15 Q144.35 -59.25 169.8 -69.6 L169.2 -69.2 Q138.5 -51.65 105.45 -33.05 L101.35 -30.75 Q30.2 9.4 16.4 15.6 L7.8 19.55 Q-28.35 36.1 -174.7 103.95;M-135.65 81.25 L-97.4 61.65 -71.8 48.75 Q-12.25 18.65 13.8 5.65 L23.3 0.9 Q65.15 -19.75 106.95 -40.35 L112.0 -42.8 Q135.1 -54.1 158.2 -65.35 L158.7 -65.55 Q130.9 -51.4 103.1 -37.3 L98.65 -35.05 Q62.55 -16.9 26.5 1.25 L17.4 5.75 Q-59.15 43.5 -135.65 81.25"/>
    </path>
    <path d="M-174.7 103.95 Q-28.35 36.1 7.8 19.55 L16.4 15.6 Q30.2 9.4 101.35 -30.75 L105.45 -33.05 Q138.5 -51.65 169.2 -69.2 L169.8 -69.6 Q144.35 -59.25 113.75 -46.15 L107.5 -43.5 Q38.95 -14.2 7.75 1.95 L-3.9 8.05 Q-36.55 25.45 -102.2 62.6 L-130.8 78.8 -174.7 103.95" fill="none" stroke="#000000" stroke-linecap="round" stroke-linejoin="round" stroke-opacity="0.0" stroke-width="1.0">
      <animate attributeName="stroke" dur="2s" repeatCount="indefinite" values="#000000;#000001"/>
      <animate attributeName="stroke-width" dur="2s" repeatCount="indefinite" values="0.0;0.0"/>
      <animate attributeName="fill-opacity" dur="2s" repeatCount="indefinite" values="0.0;0.0"/>
      <animate attributeName="d" dur="2s" repeatCount="indefinite" values="M-174.7 103.95 Q-28.35 36.1 7.8 19.55 L16.4 15.6 Q30.2 9.4 101.35 -30.75 L105.45 -33.05 Q138.5 -51.65 169.2 -69.2 L169.8 -69.6 Q144.35 -59.25 113.75 -46.15 L107.5 -43.5 Q38.95 -14.2 7.75 1.95 L-3.9 8.05 Q-36.55 25.45 -102.2 62.6 L-130.8 78.8 -174.7 103.95;M-135.65 81.25 Q-59.15 43.5 17.4 5.75 L26.5 1.25 Q62.55 -16.9 98.65 -35.05 L103.1 -37.3 Q130.9 -51.4 158.7 -65.55 L158.2 -65.35 Q135.1 -54.1 112.0 -42.8 L106.95 -40.35 Q65.15 -19.75 23.3 0.9 L13.8 5.65 Q-12.25 18.65 -71.8 48.75 L-97.4 61.65 -135.65 81.25"/>
    </path>
  </g>
</svg>
