<?xml version="1.0" encoding="UTF-8" standalone="no"?>
<svg xmlns:xlink="http://www.w3.org/1999/xlink" height="366.3px" width="120.9px" xmlns="http://www.w3.org/2000/svg">
  <g transform="matrix(1, 0, 0, 1, 62.9, 168.0)">
    <path d="M-62.9 198.3 L-49.65 149.7 -40.85 117.75 Q-20.8 45.4 -9.95 10.0 L-5.95 -2.85 Q4.65 -36.35 32.4 -105.5 L34.9 -111.75 Q47.3 -142.7 58.0 -168.0 L57.8 -167.3 38.35 -96.65 37.05 -92.15 Q15.15 -13.45 9.8 0.7 L6.55 9.4 -62.9 198.3" fill="#ccff00" fill-opacity="0.44705883" fill-rule="evenodd" stroke="none">
      <animate attributeName="fill" dur="2s" repeatCount="indefinite" values="#ccff00;#ccff01"/>
      <animate attributeName="fill-opacity" dur="2s" repeatCount="indefinite" values="0.44705883;0.44705883"/>
      <animate attributeName="d" dur="2s" repeatCount="indefinite" values="M-62.9 198.3 L-49.65 149.7 -40.85 117.75 Q-20.8 45.4 -9.95 10.0 L-5.95 -2.85 Q4.65 -36.35 32.4 -105.5 L34.9 -111.75 Q47.3 -142.7 58.0 -168.0 L57.8 -167.3 38.35 -96.65 37.05 -92.15 Q15.15 -13.45 9.8 0.7 L6.55 9.4 -62.9 198.3;M-51.3 154.6 L-38.1 113.7 -29.1 86.3 Q-14.1 40.9 0.9 -4.5 L4.2 -14.4 Q14.8 -46.05 34.3 -102.85 L36.1 -108.2 Q44.45 -132.45 52.8 -156.7 L53.0 -157.3 33.7 -98.0 32.15 -93.25 Q19.4 -54.8 6.7 -16.4 L3.5 -7.0 -51.3 154.6"/>
    </path>
    <path d="M-62.9 198.3 L6.55 9.4 9.8 0.7 Q15.15 -13.45 37.05 -92.15 L38.35 -96.65 57.8 -167.3 58.0 -168.0 Q47.3 -142.7 34.9 -111.75 L32.4 -105.5 Q4.65 -36.35 -5.95 -2.85 L-9.95 10.0 Q-20.8 45.4 -40.85 117.75 L-49.65 149.7 -62.9 198.3" fill="none" stroke="#000000" stroke-linecap="round" stroke-linejoin="round" stroke-opacity="0.0" stroke-width="1.0">
      <animate attributeName="stroke" dur="2s" repeatCount="indefinite" values="#000000;#000001"/>
      <animate attributeName="stroke-width" dur="2s" repeatCount="indefinite" values="0.0;0.0"/>
      <animate attributeName="fill-opacity" dur="2s" repeatCount="indefinite" values="0.0;0.0"/>
      <animate attributeName="d" dur="2s" repeatCount="indefinite" values="M-62.9 198.3 L6.55 9.4 9.8 0.7 Q15.15 -13.45 37.05 -92.15 L38.35 -96.65 57.8 -167.3 58.0 -168.0 Q47.3 -142.7 34.9 -111.75 L32.4 -105.5 Q4.65 -36.35 -5.95 -2.85 L-9.95 10.0 Q-20.8 45.4 -40.85 117.75 L-49.65 149.7 -62.9 198.3;M-51.3 154.6 L3.5 -7.0 6.7 -16.4 Q19.4 -54.8 32.15 -93.25 L33.7 -98.0 53.0 -157.3 52.8 -156.7 Q44.45 -132.45 36.1 -108.2 L34.3 -102.85 Q14.8 -46.05 4.2 -14.4 L0.9 -4.5 Q-14.1 40.9 -29.1 86.3 L-38.1 113.7 -51.3 154.6"/>
    </path>
  </g>
</svg>
