<?xml version="1.0" encoding="UTF-8" standalone="no"?>
<svg xmlns:xlink="http://www.w3.org/1999/xlink" height="1407.2px" width="1406.8px" xmlns="http://www.w3.org/2000/svg">
  <g transform="matrix(1, 0, 0, 1, 703.85, 703.1)">
    <path d="M-703.85 0.75 Q-703.85 294.25 -502.55 495.15 -294.0 704.1 -0.4 704.1 293.6 704.1 494.4 495.15 702.95 294.25 702.95 0.75 702.95 -293.25 494.4 -501.8 293.6 -703.1 -0.4 -703.1 -294.0 -703.1 -502.55 -501.8 -703.85 -293.25 -703.85 0.75" fill="url(#gradient0)" fill-rule="evenodd" stroke="none">
      <animate attributeName="d" dur="2s" repeatCount="indefinite" values="M-703.85 0.75 Q-703.85 294.25 -502.55 495.15 -294.0 704.1 -0.4 704.1 293.6 704.1 494.4 495.15 702.95 294.25 702.95 0.75 702.95 -293.25 494.4 -501.8 293.6 -703.1 -0.4 -703.1 -294.0 -703.1 -502.55 -501.8 -703.85 -293.25 -703.85 0.75;M-6.15 0.4 Q-6.15 2.75 -4.55 4.4 -2.85 6.1 -0.45 6.1 1.9 6.1 3.55 4.4 5.25 2.75 5.25 0.4 5.25 -2.0 3.55 -3.7 1.9 -5.3 -0.45 -5.3 -2.85 -5.3 -4.55 -3.7 -6.15 -2.0 -6.15 0.4"/>
    </path>
    <path d="M-703.85 0.75 Q-703.85 -293.25 -502.55 -501.8 -294.0 -703.1 -0.4 -703.1 293.6 -703.1 494.4 -501.8 702.95 -293.25 702.95 0.75 702.95 294.25 494.4 495.15 293.6 704.1 -0.4 704.1 -294.0 704.1 -502.55 495.15 -703.85 294.25 -703.85 0.75" fill="none" stroke="#000000" stroke-linecap="round" stroke-linejoin="round" stroke-opacity="0.0" stroke-width="1.0">
      <animate attributeName="stroke" dur="2s" repeatCount="indefinite" values="#000000;#000001"/>
      <animate attributeName="stroke-width" dur="2s" repeatCount="indefinite" values="0.0;0.0"/>
      <animate attributeName="fill-opacity" dur="2s" repeatCount="indefinite" values="0.0;0.0"/>
      <animate attributeName="d" dur="2s" repeatCount="indefinite" values="M-703.85 0.75 Q-703.85 -293.25 -502.55 -501.8 -294.0 -703.1 -0.4 -703.1 293.6 -703.1 494.4 -501.8 702.95 -293.25 702.95 0.75 702.95 294.25 494.4 495.15 293.6 704.1 -0.4 704.1 -294.0 704.1 -502.55 495.15 -703.85 294.25 -703.85 0.75;M-6.15 0.4 Q-6.15 -2.0 -4.55 -3.7 -2.85 -5.3 -0.45 -5.3 1.9 -5.3 3.55 -3.7 5.25 -2.0 5.25 0.4 5.25 2.75 3.55 4.4 1.9 6.1 -0.45 6.1 -2.85 6.1 -4.55 4.4 -6.15 2.75 -6.15 0.4"/>
    </path>
  </g>
  <defs>
    <radialGradient cx="0" cy="0" gradientTransform="matrix(0.9154, 0.0, 0.0, 0.9154, -0.4, 0.75)" gradientUnits="userSpaceOnUse" id="gradient0" r="819.2" spreadMethod="pad">
      <animateTransform additive="replace" attributeName="gradientTransform" dur="2s" from="1" repeatCount="indefinite" to="1" type="scale"/>
      <animateTransform additive="sum" attributeName="gradientTransform" dur="2s" from="-0.4 0.75" repeatCount="indefinite" to="-0.45 0.4" type="translate"/>
      <animateTransform additive="sum" attributeName="gradientTransform" dur="2s" from="0.0" repeatCount="indefinite" to="0.0" type="rotate"/>
      <animateTransform additive="sum" attributeName="gradientTransform" dur="2s" from="0.9154 0.9154" repeatCount="indefinite" to="0.0074 0.0074" type="scale"/>
      <animateTransform additive="sum" attributeName="gradientTransform" dur="2s" from="0.0" repeatCount="indefinite" to="0.0" type="skewX"/>
      <stop offset="0.0" stop-color="#ffffff">
        <animate attributeName="offset" dur="2s" repeatCount="indefinite" values="0.0;0.0"/>
        <animate attributeName="stop-color" dur="2s" repeatCount="indefinite" values="#ffffff;#ffffff"/>
        <animate attributeName="stop-opacity" dur="2s" repeatCount="indefinite" values="1.0;1.0"/>
      </stop>
      <stop offset="0.4196078431372549" stop-color="#ffffff">
        <animate attributeName="offset" dur="2s" repeatCount="indefinite" values="0.4196078431372549;0.4196078431372549"/>
        <animate attributeName="stop-color" dur="2s" repeatCount="indefinite" values="#ffffff;#ffffff"/>
        <animate attributeName="stop-opacity" dur="2s" repeatCount="indefinite" values="1.0;1.0"/>
      </stop>
      <stop offset="1.0" stop-color="#ffffff" stop-opacity="0.0">
        <animate attributeName="offset" dur="2s" repeatCount="indefinite" values="1.0;1.0"/>
        <animate attributeName="stop-color" dur="2s" repeatCount="indefinite" values="#ffffff;#ffffff"/>
        <animate attributeName="stop-opacity" dur="2s" repeatCount="indefinite" values="0.0;0.0"/>
      </stop>
    </radialGradient>
  </defs>
</svg>
