<?xml version="1.0" encoding="UTF-8" standalone="no"?>
<svg xmlns:xlink="http://www.w3.org/1999/xlink" height="133.1px" width="259.85px" xmlns="http://www.w3.org/2000/svg">
  <g transform="matrix(1, 0, 0, 1, 133.85, 60.65)">
    <path d="M-133.85 72.45 Q-125.6 69.55 -106.85 61.75 -85.4 52.8 -59.05 40.95 L-16.85 21.65 Q35.7 -2.75 80.1 -32.35 L81.0 -32.95 Q102.55 -47.3 114.0 -57.05 L121.9 -59.45 126.0 -60.65 120.85 -48.95 Q114.1 -42.7 99.15 -32.25 L95.7 -29.85 Q73.05 -14.3 44.55 1.4 L34.05 7.1 28.5 10.0 Q-12.2 31.15 -77.1 53.95 -109.55 65.35 -133.85 72.45" fill="#0bafdf" fill-rule="evenodd" stroke="none">
      <animate attributeName="fill" dur="2s" repeatCount="indefinite" values="#0bafdf;#0bafe0"/>
      <animate attributeName="fill-opacity" dur="2s" repeatCount="indefinite" values="1.0;1.0"/>
      <animate attributeName="d" dur="2s" repeatCount="indefinite" values="M-133.85 72.45 Q-125.6 69.55 -106.85 61.75 -85.4 52.8 -59.05 40.95 L-16.85 21.65 Q35.7 -2.75 80.1 -32.35 L81.0 -32.95 Q102.55 -47.3 114.0 -57.05 L121.9 -59.45 126.0 -60.65 120.85 -48.95 Q114.1 -42.7 99.15 -32.25 L95.7 -29.85 Q73.05 -14.3 44.55 1.4 L34.05 7.1 28.5 10.0 Q-12.2 31.15 -77.1 53.95 -109.55 65.35 -133.85 72.45;M62.25 -20.85 Q65.5 -22.9 68.7 -24.9 74.45 -28.55 80.1 -32.35 L90.45 -39.35 Q105.0 -49.4 113.8 -56.85 L114.0 -57.05 Q118.95 -58.55 123.9 -60.05 L126.0 -60.65 125.6 -59.65 124.2 -56.65 Q122.7 -53.3 121.25 -49.95 L120.85 -48.95 Q116.6 -45.0 108.95 -39.25 L106.2 -37.9 104.7 -37.3 Q90.6 -31.85 76.55 -26.4 69.4 -23.6 62.25 -20.85"/>
    </path>
    <path d="M-133.85 72.45 Q-109.55 65.35 -77.1 53.95 -12.2 31.15 28.5 10.0 L34.05 7.1 44.55 1.4 Q73.05 -14.3 95.7 -29.85 L99.15 -32.25 Q114.1 -42.7 120.85 -48.95 L126.0 -60.65 121.9 -59.45 114.0 -57.05 Q102.55 -47.3 81.0 -32.95 L80.1 -32.35 Q35.7 -2.75 -16.85 21.65 L-59.05 40.95 Q-85.4 52.8 -106.85 61.75 -125.6 69.55 -133.85 72.45" fill="none" stroke="#000000" stroke-linecap="round" stroke-linejoin="round" stroke-opacity="0.0" stroke-width="1.0">
      <animate attributeName="stroke" dur="2s" repeatCount="indefinite" values="#000000;#000001"/>
      <animate attributeName="stroke-width" dur="2s" repeatCount="indefinite" values="0.0;0.0"/>
      <animate attributeName="fill-opacity" dur="2s" repeatCount="indefinite" values="0.0;0.0"/>
      <animate attributeName="d" dur="2s" repeatCount="indefinite" values="M-133.85 72.45 Q-109.55 65.35 -77.1 53.95 -12.2 31.15 28.5 10.0 L34.05 7.1 44.55 1.4 Q73.05 -14.3 95.7 -29.85 L99.15 -32.25 Q114.1 -42.7 120.85 -48.95 L126.0 -60.65 121.9 -59.45 114.0 -57.05 Q102.55 -47.3 81.0 -32.95 L80.1 -32.35 Q35.7 -2.75 -16.85 21.65 L-59.05 40.95 Q-85.4 52.8 -106.85 61.75 -125.6 69.55 -133.85 72.45;M62.25 -20.85 Q69.4 -23.6 76.55 -26.4 90.6 -31.85 104.7 -37.3 L106.2 -37.9 108.95 -39.25 Q116.6 -45.0 120.85 -48.95 L121.25 -49.95 Q122.7 -53.3 124.2 -56.65 L125.6 -59.65 126.0 -60.65 123.9 -60.05 Q118.95 -58.55 114.0 -57.05 L113.8 -56.85 Q105.0 -49.4 90.45 -39.35 L80.1 -32.35 Q74.45 -28.55 68.7 -24.9 65.5 -22.9 62.25 -20.85"/>
    </path>
  </g>
</svg>
